…
# select order data and total price
date_price <- select(order_tbl,orderdate, totalprice)
date_price

# rename column name at the same time
date_price2 <- select(order_tbl,date = orderdate, price = totalprice)
date_price2

# select starts with order column name
Start_With_Order <- select(order_tbl,starts_with("order",ignore.case = TRUE))
Start_With_Order
# A tibble: 100,000 × 2
#    orderid  orderdate
#      <int>     <fctr>
# 1  1002854 2009-10-13
# 2  1002855 2009-10-13
# 3  1002856 2011-06-02
# 4  1002857 2009-10-14
# 5  1002886 2010-11-19
# 6  1002887 2009-10-15
# 7  1002888 2009-10-15
# 8  1002889 2009-10-15
# 9  1002890 2009-10-15
# 10 1003004 2009-10-15
# ... with 99,990 more rows
…
# use arrange to order a data frame/tbl, default is aesc, 1 to 3
arrange(df1, color)
# use desc to order by 3 to 1
arrange(df1, desc(color))

# import data and change to tbl object
order <- read.csv("dplyr-data/order.csv")
head(order,5)
order_tbl <- tbl_df(order)
head(order_tbl, 5)

# order by date
tbl <- select(order_tbl, odate = orderdate, oprice = totalprice)
arrange(tbl, odate)
# A tibble: 100,000 × 2
#         odate oprice
#        <fctr>  <dbl>
# 1  2009-10-04    200
# 2  2009-10-04    120
# 3  2009-10-04    100
# 4  2009-10-04    100
# 5  2009-10-04     70
# 6  2009-10-04     50
# 7  2009-10-04     50
# 8  2009-10-04     40
# 9  2009-10-04     40
# 10 2009-10-04     40
# ... with 99,990 more rows

# order by date & by price desc 3 to 1
arrange(tbl, odate, desc(oprice))
# A tibble: 100,000 × 2
#         odate oprice
#        <fctr>  <dbl>
# 1  2009-10-04    200
# 2  2009-10-04    120
# 3  2009-10-04    100
# 4  2009-10-04    100
# 5  2009-10-04     70
# 6  2009-10-04     50
# 7  2009-10-04     50
# 8  2009-10-04     40
# 9  2009-10-04     40
# 10 2009-10-04     40
# ... with 99,990 more rows
```
…
